Id_cliente,Nome_cliente,Email_cliente,Telefone_cliente,Senha_cliente,Data_nasc_cliente
1,Maria,maria@maria.com,(31)2222-0992,000,1980-10-10
3,Pedro,pedro@pedro.com,(31)9999-8888,1111,1992-10-21
5,Madalena,madalena@madalena.com,(31)9999-8888,1111,1992-10-21
7,Wagner,wagner@wagner.com,(11)9988-0011,9090,1993-10-09
8,Margarida,margarida@margarida.com,(11)9988-0011,1111,1967-11-08
10,Tereza,tereza@tereza.com,(31)9988-9045,3333,1934-09-13
13,Mateus,mateus@mateus.com,(99)9999-9999,99999,1989-09-09
15,Mariana,mariana@mariana.com,(99)9999-9999,99999,1961-11-01
17,Gabriel,gabriel@gabriel.com,(11)1111-1111,11111,1911-11-11
